{"count":1441,"next":"http://dronesim.facets-labs.com/api/51/dynamics/?format=json&limit=1&offset=1","previous":null,"results":[{"drone":"http://dronesim.facets-labs.com/api/drones/51/?format=json","timestamp":"2023-11-30T15:43:27.820969+01:00","speed":36,"align_roll":"0.00","align_pitch":"0.00","align_yaw":"0.00","longitude":"50.039364000","latitude":"8.214841000","battery_status":750,"last_seen":"2023-11-30T15:43:27.820969+01:00","status":"ON"}]}