{"count":1441,"next":"http://dronesim.facets-labs.com/api/51/dynamics/?format=json&limit=1&offset=11","previous":"http://dronesim.facets-labs.com/api/51/dynamics/?format=json&limit=1&offset=9","results":[{"drone":"http://dronesim.facets-labs.com/api/drones/51/?format=json","timestamp":"2023-11-30T15:53:27.820969+01:00","speed":12,"align_roll":"0.00","align_pitch":"0.00","align_yaw":"178.00","longitude":"50.039371475","latitude":"8.214836373","battery_status":620,"last_seen":"2023-11-30T15:53:27.820969+01:00","status":"ON"}]}