{"count":20,"next":"http://dronesim.facets-labs.com/api/dronetypes/?format=json&limit=10&offset=10","previous":null,"results":[{"id":87,"manufacturer":"Altair Aerial","typename":"AA108","weight":85,"max_speed":36,"battery_capacity":750,"control_range":300,"max_carriage":60},{"id":78,"manufacturer":"Autel Robotics","typename":"Evo II","weight":1127,"max_speed":72,"battery_capacity":7100,"control_range":9000,"max_carriage":800},{"id":75,"manufacturer":"Blade","typename":"Chroma Camera Drone","weight":1630,"max_speed":65,"battery_capacity":5400,"control_range":2500,"max_carriage":600},{"id":82,"manufacturer":"Cheerson","typename":"CX-10","weight":25,"max_speed":20,"battery_capacity":100,"control_range":50,"max_carriage":30},{"id":90,"manufacturer":"Contixo","typename":"F24 Pro","weight":520,"max_speed":60,"battery_capacity":2500,"control_range":1200,"max_carriage":250},{"id":76,"manufacturer":"DJI","typename":"Phantom 4 Pro","weight":1380,"max_speed":72,"battery_capacity":5870,"control_range":7000,"max_carriage":500},{"id":84,"manufacturer":"Eachine","typename":"E58","weight":96,"max_speed":35,"battery_capacity":500,"control_range":200,"max_carriage":50},{"id":71,"manufacturer":"GoPro","typename":"Karma","weight":1000,"max_speed":56,"battery_capacity":5100,"control_range":1500,"max_carriage":400},{"id":85,"manufacturer":"Holy Stone","typename":"HS100","weight":700,"max_speed":45,"battery_capacity":3500,"control_range":500,"max_carriage":500},{"id":72,"manufacturer":"Hubsan","typename":"X4 H107D","weight":50,"max_speed":32,"battery_capacity":380,"control_range":200,"max_carriage":50}]}