{"count":28820,"next":"http://dronesim.facets-labs.com/api/dronedynamics/?format=json&limit=10&offset=10","previous":null,"results":[{"drone":"http://dronesim.facets-labs.com/api/drones/57/?format=json","timestamp":"2023-11-30T15:43:27.820969+01:00","speed":32,"align_roll":"0.00","align_pitch":"0.00","align_yaw":"0.00","longitude":"49.998984000","latitude":"8.276432000","battery_status":380,"last_seen":"2023-11-30T15:43:27.820969+01:00","status":"ON"},{"drone":"http://dronesim.facets-labs.com/api/drones/59/?format=json","timestamp":"2023-11-30T15:43:27.820969+01:00","speed":80,"align_roll":"0.00","align_pitch":"0.00","align_yaw":"0.00","longitude":"50.192078000","latitude":"8.496004000","battery_status":7500,"last_seen":"2023-11-30T15:43:27.820969+01:00","status":"ON"},{"drone":"http://dronesim.facets-labs.com/api/drones/54/?format=json","timestamp":"2023-11-30T15:43:27.820969+01:00","speed":35,"align_roll":"0.00","align_pitch":"0.00","align_yaw":"0.00","longitude":"50.110924000","latitude":"8.682127000","battery_status":500,"last_seen":"2023-11-30T15:43:27.820969+01:00","status":"ON"},{"drone":"http://dronesim.facets-labs.com/api/drones/56/?format=json","timestamp":"2023-11-30T15:43:27.820969+01:00","speed":40,"align_roll":"0.00","align_pitch":"0.00","align_yaw":"0.00","longitude":"50.107185833","latitude":"8.663789667","battery_status":550,"last_seen":"2023-11-30T15:43:27.820969+01:00","status":"ON"},{"drone":"http://dronesim.facets-labs.com/api/drones/51/?format=json","timestamp":"2023-11-30T15:43:27.820969+01:00","speed":36,"align_roll":"0.00","align_pitch":"0.00","align_yaw":"0.00","longitude":"50.039364000","latitude":"8.214841000","battery_status":750,"last_seen":"2023-11-30T15:43:27.820969+01:00","status":"ON"},{"drone":"http://dronesim.facets-labs.com/api/drones/58/?format=json","timestamp":"2023-11-30T15:43:27.820969+01:00","speed":40,"align_roll":"0.00","align_pitch":"0.00","align_yaw":"0.00","longitude":"49.870867000","latitude":"8.655013000","battery_status":550,"last_seen":"2023-11-30T15:43:27.820969+01:00","status":"ON"},{"drone":"http://dronesim.facets-labs.com/api/drones/52/?format=json","timestamp":"2023-11-30T15:43:27.820969+01:00","speed":58,"align_roll":"0.00","align_pitch":"0.00","align_yaw":"0.00","longitude":"50.050194000","latitude":"8.570487000","battery_status":4280,"last_seen":"2023-11-30T15:43:27.820969+01:00","status":"ON"},{"drone":"http://dronesim.facets-labs.com/api/drones/53/?format=json","timestamp":"2023-11-30T15:43:27.820969+01:00","speed":36,"align_roll":"0.00","align_pitch":"0.00","align_yaw":"0.00","longitude":"50.107699000","latitude":"8.678109000","battery_status":750,"last_seen":"2023-11-30T15:43:27.820969+01:00","status":"ON"},{"drone":"http://dronesim.facets-labs.com/api/drones/55/?format=json","timestamp":"2023-11-30T15:43:27.820969+01:00","speed":36,"align_roll":"0.00","align_pitch":"0.00","align_yaw":"0.00","longitude":"50.192078000","latitude":"8.496004000","battery_status":750,"last_seen":"2023-11-30T15:43:27.820969+01:00","status":"ON"},{"drone":"http://dronesim.facets-labs.com/api/drones/60/?format=json","timestamp":"2023-11-30T15:43:27.820969+01:00","speed":55,"align_roll":"0.00","align_pitch":"0.00","align_yaw":"0.00","longitude":"50.107185833","latitude":"8.663789667","battery_status":2700,"last_seen":"2023-11-30T15:43:27.820969+01:00","status":"ON"}]}