{"count":20,"next":"http://dronesim.facets-labs.com/api/drones/?format=json&limit=10&offset=10","previous":null,"results":[{"id":51,"dronetype":"http://dronesim.facets-labs.com/api/dronetypes/67/?format=json","created":"2023-12-01T15:43:27.917854+01:00","serialnumber":"AlAA-2023-2BD9DD","carriage_weight":20,"carriage_type":"ACT"},{"id":52,"dronetype":"http://dronesim.facets-labs.com/api/dronetypes/60/?format=json","created":"2023-12-01T15:43:27.922644+01:00","serialnumber":"SkSk-2021-F4BCA4","carriage_weight":361,"carriage_type":"SEN"},{"id":53,"dronetype":"http://dronesim.facets-labs.com/api/dronetypes/67/?format=json","created":"2023-12-01T15:43:27.925276+01:00","serialnumber":"AlAA-2025-40668F","carriage_weight":24,"carriage_type":"ACT"},{"id":54,"dronetype":"http://dronesim.facets-labs.com/api/dronetypes/64/?format=json","created":"2023-12-01T15:43:27.927576+01:00","serialnumber":"EaE5-2029-4ECEC7","carriage_weight":0,"carriage_type":"NOT"},{"id":55,"dronetype":"http://dronesim.facets-labs.com/api/dronetypes/67/?format=json","created":"2023-12-01T15:43:27.929778+01:00","serialnumber":"AlAA-2031-91A154","carriage_weight":57,"carriage_type":"SEN"},{"id":56,"dronetype":"http://dronesim.facets-labs.com/api/dronetypes/68/?format=json","created":"2023-12-01T15:43:27.932007+01:00","serialnumber":"SnS5-2025-96F343","carriage_weight":0,"carriage_type":"NOT"},{"id":57,"dronetype":"http://dronesim.facets-labs.com/api/dronetypes/52/?format=json","created":"2023-12-01T15:43:27.934096+01:00","serialnumber":"HuX4-2028-6D7118","carriage_weight":25,"carriage_type":"SEN"},{"id":58,"dronetype":"http://dronesim.facets-labs.com/api/dronetypes/68/?format=json","created":"2023-12-01T15:43:27.936245+01:00","serialnumber":"SnS5-2022-4A382A","carriage_weight":76,"carriage_type":"ACT"},{"id":59,"dronetype":"http://dronesim.facets-labs.com/api/dronetypes/53/?format=json","created":"2023-12-01T15:43:27.938262+01:00","serialnumber":"WaVo-2028-CBA739","carriage_weight":0,"carriage_type":"NOT"},{"id":60,"dronetype":"http://dronesim.facets-labs.com/api/dronetypes/59/?format=json","created":"2023-12-01T15:43:27.940361+01:00","serialnumber":"PaAn-2022-D23CB9","carriage_weight":0,"carriage_type":"NOT"}]}